/home/edinson/Documentos/Personal/Proyectos/Web/SpringBoot/Workspace Inventario/inventario/src/main/java/co/com/nexos/ws/ui/model/response/Response.java
/home/edinson/Documentos/Personal/Proyectos/Web/SpringBoot/Workspace Inventario/inventario/src/main/java/co/com/nexos/ws/entities/Cargo.java
/home/edinson/Documentos/Personal/Proyectos/Web/SpringBoot/Workspace Inventario/inventario/src/main/java/co/com/nexos/ws/dto/UsuarioDTO.java
/home/edinson/Documentos/Personal/Proyectos/Web/SpringBoot/Workspace Inventario/inventario/src/main/java/co/com/nexos/ws/service/UsuarioService.java
/home/edinson/Documentos/Personal/Proyectos/Web/SpringBoot/Workspace Inventario/inventario/src/main/java/co/com/nexos/ws/repository/CargoRepository.java
/home/edinson/Documentos/Personal/Proyectos/Web/SpringBoot/Workspace Inventario/inventario/src/main/java/co/com/nexos/ws/service/CargoService.java
/home/edinson/Documentos/Personal/Proyectos/Web/SpringBoot/Workspace Inventario/inventario/src/main/java/co/com/nexos/ws/dto/MercanciaDTO.java
/home/edinson/Documentos/Personal/Proyectos/Web/SpringBoot/Workspace Inventario/inventario/src/main/java/co/com/nexos/ws/config/SpringFoxConfig.java
/home/edinson/Documentos/Personal/Proyectos/Web/SpringBoot/Workspace Inventario/inventario/src/main/java/co/com/nexos/ws/service/MercanciaService.java
/home/edinson/Documentos/Personal/Proyectos/Web/SpringBoot/Workspace Inventario/inventario/src/main/java/co/com/nexos/ws/exception/EntityServiceException.java
/home/edinson/Documentos/Personal/Proyectos/Web/SpringBoot/Workspace Inventario/inventario/src/main/java/co/com/nexos/ws/entities/Usuario.java
/home/edinson/Documentos/Personal/Proyectos/Web/SpringBoot/Workspace Inventario/inventario/src/main/java/co/com/nexos/ws/entities/Mercancia.java
/home/edinson/Documentos/Personal/Proyectos/Web/SpringBoot/Workspace Inventario/inventario/src/main/java/co/com/nexos/ws/repository/UsuarioRepository.java
/home/edinson/Documentos/Personal/Proyectos/Web/SpringBoot/Workspace Inventario/inventario/src/main/java/co/com/nexos/ws/ui/controller/GestionController.java
/home/edinson/Documentos/Personal/Proyectos/Web/SpringBoot/Workspace Inventario/inventario/src/main/java/co/com/nexos/ws/dto/CargoDTO.java
/home/edinson/Documentos/Personal/Proyectos/Web/SpringBoot/Workspace Inventario/inventario/src/main/java/co/com/nexos/ws/ApplicationInventario.java
/home/edinson/Documentos/Personal/Proyectos/Web/SpringBoot/Workspace Inventario/inventario/src/main/java/co/com/nexos/ws/repository/MercanciaRepository.java
/home/edinson/Documentos/Personal/Proyectos/Web/SpringBoot/Workspace Inventario/inventario/src/main/java/co/com/nexos/ws/util/SpringSecurityConfig.java
/home/edinson/Documentos/Personal/Proyectos/Web/SpringBoot/Workspace Inventario/inventario/src/main/java/co/com/nexos/ws/config/Swagger.java
